<!document html>
<html>
	<head>
	<meta charset="utf-8"/>
		<title> This is my first page </title>
	</head>
	<body>

		<!-- This text is comment and i will not apear with this simbols -->
		This with the line up means horizontal rule, and it is mark up with hr.
		<hr/>
		<ul>
			<li> Unorder lists </li>
			<li> list 1 </li>
			<li> list 2 </li>
			<li> list 3 </li>
		<ul/>
		<hr/>
		<ol>
			<li> order list </li>
			<li> practice 1 </li>
			<li> practice 2 </li>
			<li> practice 3 </li>
		</ol>
		
		
		
	</body>
</html>
